Year,totalMovies,totalRating,averageRating,Year of Acting
2018,1,6.0,6.0,43
2016,1,5.6,5.6,41
2015,3,22.7,7.566666666666666,40
2013,1,8.4,8.4,38
2010,2,9.3,4.65,35
2009,1,8.0,8.0,34
2008,1,7.2,7.2,33
2006,1,8.0,8.0,31
2005,2,13.600000000000001,6.800000000000001,30
2004,2,16.0,8.0,29
2003,2,16.0,8.0,28
2002,2,15.1,7.55,27
2001,2,12.7,6.35,26
2000,2,15.6,7.8,25
1998,1,7.4,7.4,23
1997,2,13.9,6.95,22
1996,2,16.0,8.0,21
1995,3,23.5,7.833333333333333,20
1994,2,14.899999999999999,7.449999999999999,19
1993,3,21.299999999999997,7.099999999999999,18
1992,2,16.1,8.05,17
1991,1,8.2,8.2,16
1990,2,14.3,7.15,15
1989,4,30.4,7.6,14
1988,4,30.2,7.55,13
1987,7,53.0,7.571428571428571,12
1986,4,30.5,7.625,11
1985,10,67.8,6.779999999999999,10
1984,8,52.1,6.5125,9
1983,8,62.4,7.8,8
1982,13,94.8,7.292307692307692,7
1981,15,105.49999999999999,7.033333333333332,6
1980,4,28.3,7.075,5
1979,14,97.5,6.964285714285714,4
1978,16,113.3,7.08125,3
1977,15,102.19999999999997,6.813333333333332,2
1976,11,80.19999999999999,7.29090909090909,1
